<?xml version="1.0" encoding="UTF-8"?>
<svg width="750" height="500" version="1.1" viewBox="0 0 750.00001 500.00001" xmlns="http://www.w3.org/2000/svg">
 <g transform="translate(0 -552.36)">
  <rect y="552.36" width="750" height="500" fill="#46c7ec"/>
 </g>
 <g transform="translate(-9.1085 18.356)">
  <rect x="377.29" y="327.59" width="16.235" height="77.276" ry="0" fill="#cecece"/>
  <rect x="123.38" y="61.019" width="521.45" height="305.21" ry="3.6734" fill="#f3f3f3"/>
  <path d="m127.06 53.227c-2.0351 0-3.6738 1.6387-3.6738 3.6738v298.94h521.45v-298.94c0-2.0351-1.6368-3.6738-3.6719-3.6738z"/>
  <path transform="rotate(90)" d="m410.06-483.64v196.47l-10.391-9.8581v-176.76z" fill="#f3f3f3"/>
 </g>
</svg>